{
    "shrug": "¯\\_(ツ)_/¯",
    "upset": "ಠ_ಠ",
    "angry": "ಠ╭╮ಠ",
    "cannot unsee": "◉_◉",
    "kbd": "<kbd>%filltext:name=Key:default=Ctrl%</kbd>",
    "now playing": "ɴᴏᴡ ᴘʟᴀʏɪɴɢ: %filltext:name=Song% (Feat: %filltext:name=Featured Artist%)\n​        ───────────⚪──────  \n◄◄⠀▐▐ ⠀►►5:12/ 7:𝟻𝟼 ───○ 🔊⠀ ᴴᴰ ⚙️",
    "details": "<details>\n<summary>%filltext:name=Summary:default=View Dropdown%</summary>\n<details>",
    "calc": "%script:name=.calc_script:args=calculator%",
    ".calc_script": "#!/bin/bash\necho \"$*\" | bc"
}
